info face="Arial" size=28 bold=0 italic=0 charset="" unicode=0 stretchH=100 smooth=1 aa=1 padding=0,0,0,0 spacing=0,0
common lineHeight=33 base=26 scaleW=256 scaleH=128 pages=1 packed=0
page id=0 file="text28.png"
chars count=95
char id=32   x=0     y=0     width=0     height=0     xoffset=0     yoffset=26    xadvance=8     page=0  chnl=0 
char id=64   x=0     y=0     width=27     height=28     xoffset=2     yoffset=5    xadvance=28     page=0  chnl=0 
char id=124   x=27     y=0     width=4     height=28     xoffset=2     yoffset=5    xadvance=6     page=0  chnl=0 
char id=125   x=31     y=0     width=10     height=28     xoffset=0     yoffset=5    xadvance=9     page=0  chnl=0 
char id=123   x=41     y=0     width=10     height=28     xoffset=1     yoffset=5    xadvance=9     page=0  chnl=0 
char id=93   x=51     y=0     width=7     height=28     xoffset=1     yoffset=5    xadvance=8     page=0  chnl=0 
char id=91   x=58     y=0     width=7     height=28     xoffset=2     yoffset=5    xadvance=8     page=0  chnl=0 
char id=41   x=65     y=0     width=8     height=28     xoffset=1     yoffset=5    xadvance=9     page=0  chnl=0 
char id=40   x=73     y=0     width=7     height=28     xoffset=2     yoffset=5    xadvance=9     page=0  chnl=0 
char id=106   x=80     y=0     width=9     height=28     xoffset=-2     yoffset=5    xadvance=6     page=0  chnl=0 
char id=36   x=89     y=0     width=15     height=25     xoffset=1     yoffset=4    xadvance=16     page=0  chnl=0 
char id=81   x=104     y=0     width=22     height=24     xoffset=1     yoffset=5    xadvance=22     page=0  chnl=0 
char id=121   x=126     y=0     width=15     height=23     xoffset=0     yoffset=10    xadvance=13     page=0  chnl=0 
char id=113   x=141     y=0     width=15     height=23     xoffset=1     yoffset=10    xadvance=16     page=0  chnl=0 
char id=112   x=156     y=0     width=15     height=23     xoffset=2     yoffset=10    xadvance=16     page=0  chnl=0 
char id=103   x=171     y=0     width=15     height=23     xoffset=1     yoffset=10    xadvance=16     page=0  chnl=0 
char id=38   x=186     y=0     width=18     height=22     xoffset=1     yoffset=5    xadvance=19     page=0  chnl=0 
char id=35   x=204     y=0     width=17     height=22     xoffset=0     yoffset=5    xadvance=16     page=0  chnl=0 
char id=37   x=221     y=0     width=23     height=22     xoffset=2     yoffset=5    xadvance=25     page=0  chnl=0 
char id=92   x=244     y=0     width=9     height=22     xoffset=0     yoffset=5    xadvance=8     page=0  chnl=0 
char id=47   x=0     y=28     width=10     height=22     xoffset=0     yoffset=5    xadvance=8     page=0  chnl=0 
char id=59   x=10     y=28     width=4     height=22     xoffset=3     yoffset=10    xadvance=8     page=0  chnl=0 
char id=33   x=14     y=28     width=4     height=22     xoffset=3     yoffset=5    xadvance=8     page=0  chnl=0 
char id=48   x=18     y=28     width=15     height=22     xoffset=1     yoffset=5    xadvance=16     page=0  chnl=0 
char id=57   x=33     y=28     width=15     height=22     xoffset=1     yoffset=5    xadvance=16     page=0  chnl=0 
char id=56   x=48     y=28     width=15     height=22     xoffset=1     yoffset=5    xadvance=16     page=0  chnl=0 
char id=55   x=63     y=28     width=15     height=22     xoffset=1     yoffset=5    xadvance=16     page=0  chnl=0 
char id=53   x=78     y=28     width=15     height=22     xoffset=1     yoffset=5    xadvance=16     page=0  chnl=0 
char id=52   x=93     y=28     width=16     height=22     xoffset=1     yoffset=5    xadvance=16     page=0  chnl=0 
char id=51   x=109     y=28     width=14     height=22     xoffset=1     yoffset=5    xadvance=16     page=0  chnl=0 
char id=50   x=123     y=28     width=15     height=22     xoffset=1     yoffset=5    xadvance=16     page=0  chnl=0 
char id=49   x=138     y=28     width=10     height=22     xoffset=2     yoffset=5    xadvance=16     page=0  chnl=0 
char id=108   x=148     y=28     width=4     height=22     xoffset=2     yoffset=5    xadvance=6     page=0  chnl=0 
char id=107   x=152     y=28     width=13     height=22     xoffset=2     yoffset=5    xadvance=14     page=0  chnl=0 
char id=105   x=165     y=28     width=4     height=22     xoffset=2     yoffset=5    xadvance=6     page=0  chnl=0 
char id=104   x=169     y=28     width=14     height=22     xoffset=2     yoffset=5    xadvance=16     page=0  chnl=0 
char id=102   x=183     y=28     width=10     height=22     xoffset=0     yoffset=5    xadvance=7     page=0  chnl=0 
char id=100   x=193     y=28     width=15     height=22     xoffset=1     yoffset=5    xadvance=16     page=0  chnl=0 
char id=98   x=208     y=28     width=15     height=22     xoffset=2     yoffset=5    xadvance=16     page=0  chnl=0 
char id=90   x=223     y=28     width=18     height=22     xoffset=0     yoffset=5    xadvance=17     page=0  chnl=0 
char id=89   x=0     y=50     width=19     height=22     xoffset=0     yoffset=5    xadvance=18     page=0  chnl=0 
char id=88   x=19     y=50     width=20     height=22     xoffset=0     yoffset=5    xadvance=19     page=0  chnl=0 
char id=87   x=39     y=50     width=28     height=22     xoffset=0     yoffset=5    xadvance=28     page=0  chnl=0 
char id=86   x=67     y=50     width=20     height=22     xoffset=0     yoffset=5    xadvance=19     page=0  chnl=0 
char id=85   x=87     y=50     width=18     height=22     xoffset=2     yoffset=5    xadvance=20     page=0  chnl=0 
char id=84   x=105     y=50     width=18     height=22     xoffset=0     yoffset=5    xadvance=16     page=0  chnl=0 
char id=83   x=123     y=50     width=18     height=22     xoffset=1     yoffset=5    xadvance=19     page=0  chnl=0 
char id=82   x=141     y=50     width=18     height=22     xoffset=2     yoffset=5    xadvance=20     page=0  chnl=0 
char id=80   x=159     y=50     width=18     height=22     xoffset=2     yoffset=5    xadvance=19     page=0  chnl=0 
char id=79   x=177     y=50     width=22     height=22     xoffset=1     yoffset=5    xadvance=22     page=0  chnl=0 
char id=78   x=199     y=50     width=18     height=22     xoffset=2     yoffset=5    xadvance=20     page=0  chnl=0 
char id=76   x=217     y=50     width=15     height=22     xoffset=2     yoffset=5    xadvance=16     page=0  chnl=0 
char id=75   x=232     y=50     width=17     height=22     xoffset=2     yoffset=5    xadvance=19     page=0  chnl=0 
char id=74   x=0     y=72     width=13     height=22     xoffset=1     yoffset=5    xadvance=14     page=0  chnl=0 
char id=73   x=13     y=72     width=4     height=22     xoffset=3     yoffset=5    xadvance=8     page=0  chnl=0 
char id=72   x=17     y=72     width=18     height=22     xoffset=2     yoffset=5    xadvance=20     page=0  chnl=0 
char id=71   x=35     y=72     width=21     height=22     xoffset=1     yoffset=5    xadvance=22     page=0  chnl=0 
char id=70   x=56     y=72     width=16     height=22     xoffset=2     yoffset=5    xadvance=17     page=0  chnl=0 
char id=69   x=72     y=72     width=17     height=22     xoffset=2     yoffset=5    xadvance=19     page=0  chnl=0 
char id=68   x=89     y=72     width=19     height=22     xoffset=2     yoffset=5    xadvance=20     page=0  chnl=0 
char id=67   x=108     y=72     width=19     height=22     xoffset=1     yoffset=5    xadvance=20     page=0  chnl=0 
char id=66   x=127     y=72     width=18     height=22     xoffset=2     yoffset=5    xadvance=19     page=0  chnl=0 
char id=65   x=145     y=72     width=20     height=22     xoffset=0     yoffset=5    xadvance=19     page=0  chnl=0 
char id=63   x=165     y=72     width=16     height=21     xoffset=1     yoffset=6    xadvance=16     page=0  chnl=0 
char id=54   x=181     y=72     width=15     height=21     xoffset=1     yoffset=6    xadvance=16     page=0  chnl=0 
char id=116   x=196     y=72     width=9     height=21     xoffset=0     yoffset=6    xadvance=8     page=0  chnl=0 
char id=77   x=205     y=72     width=19     height=21     xoffset=3     yoffset=6    xadvance=23     page=0  chnl=0 
char id=127   x=224     y=72     width=16     height=19     xoffset=3     yoffset=8    xadvance=21     page=0  chnl=0 
char id=58   x=240     y=72     width=4     height=17     xoffset=3     yoffset=10    xadvance=8     page=0  chnl=0 
char id=122   x=0     y=94     width=15     height=17     xoffset=0     yoffset=10    xadvance=14     page=0  chnl=0 
char id=120   x=15     y=94     width=15     height=17     xoffset=0     yoffset=10    xadvance=13     page=0  chnl=0 
char id=119   x=30     y=94     width=23     height=17     xoffset=-1     yoffset=10    xadvance=19     page=0  chnl=0 
char id=118   x=53     y=94     width=16     height=17     xoffset=-1     yoffset=10    xadvance=13     page=0  chnl=0 
char id=117   x=69     y=94     width=14     height=17     xoffset=2     yoffset=10    xadvance=16     page=0  chnl=0 
char id=115   x=83     y=94     width=14     height=17     xoffset=1     yoffset=10    xadvance=14     page=0  chnl=0 
char id=114   x=97     y=94     width=8     height=17     xoffset=2     yoffset=10    xadvance=9     page=0  chnl=0 
char id=111   x=105     y=94     width=15     height=17     xoffset=1     yoffset=10    xadvance=15     page=0  chnl=0 
char id=110   x=120     y=94     width=14     height=17     xoffset=2     yoffset=10    xadvance=16     page=0  chnl=0 
char id=109   x=134     y=94     width=22     height=17     xoffset=2     yoffset=10    xadvance=24     page=0  chnl=0 
char id=101   x=156     y=94     width=15     height=17     xoffset=1     yoffset=10    xadvance=15     page=0  chnl=0 
char id=99   x=171     y=94     width=13     height=17     xoffset=1     yoffset=10    xadvance=14     page=0  chnl=0 
char id=97   x=184     y=94     width=14     height=17     xoffset=1     yoffset=10    xadvance=15     page=0  chnl=0 
char id=43   x=198     y=94     width=16     height=16     xoffset=1     yoffset=9    xadvance=16     page=0  chnl=0 
char id=62   x=214     y=94     width=14     height=14     xoffset=2     yoffset=10    xadvance=16     page=0  chnl=0 
char id=60   x=228     y=94     width=14     height=14     xoffset=2     yoffset=10    xadvance=16     page=0  chnl=0 
char id=94   x=242     y=94     width=13     height=13     xoffset=1     yoffset=5    xadvance=14     page=0  chnl=0 
char id=42   x=0     y=111     width=11     height=11     xoffset=1     yoffset=5    xadvance=11     page=0  chnl=0 
char id=61   x=11     y=111     width=15     height=10     xoffset=1     yoffset=11    xadvance=16     page=0  chnl=0 
char id=44   x=26     y=111     width=4     height=9     xoffset=2     yoffset=23    xadvance=8     page=0  chnl=0 
char id=39   x=30     y=111     width=4     height=9     xoffset=1     yoffset=5    xadvance=5     page=0  chnl=0 
char id=34   x=34     y=111     width=10     height=9     xoffset=1     yoffset=5    xadvance=10     page=0  chnl=0 
char id=126   x=44     y=111     width=16     height=6     xoffset=1     yoffset=13    xadvance=16     page=0  chnl=0 
char id=96   x=60     y=111     width=6     height=6     xoffset=1     yoffset=5    xadvance=9     page=0  chnl=0 
char id=95   x=66     y=111     width=19     height=4     xoffset=-1     yoffset=29    xadvance=16     page=0  chnl=0 
char id=45   x=85     y=111     width=9     height=4     xoffset=1     yoffset=17    xadvance=9     page=0  chnl=0 
char id=46   x=94     y=111     width=4     height=4     xoffset=2     yoffset=23    xadvance=8     page=0  chnl=0 
